{
  "object_kind": "note",
  "event_type": "note",
  "user": {
    "id": 5991344,
    "name": "Patrick Talbert",
    "username": "ptalbert",
    "avatar_url": "https://secure.gravatar.com/avatar/e662529ce161e09ea3cd97de5ee5f139?s=80&d=identicon",
    "email": "[REDACTED]"
  },
  "project_id": 13604247,
  "project": {
    "id": 13604247,
    "name": "kernel-ark",
    "description": "The source tree for the Fedora and Always Ready kernels. This repository contains the configurations, build scripts, and downstream patches for both the Fedora kernel and the Always Ready Kernel (ARK).\r\n\r\nDocs: https://cki-project.gitlab.io/kernel-ark/",
    "web_url": "https://gitlab.com/cki-project/kernel-ark",
    "avatar_url": null,
    "git_ssh_url": "git@gitlab.com:cki-project/kernel-ark.git",
    "git_http_url": "https://gitlab.com/cki-project/kernel-ark.git",
    "namespace": "cki-project",
    "visibility_level": 20,
    "path_with_namespace": "cki-project/kernel-ark",
    "default_branch": "os-build",
    "ci_config_path": "",
    "homepage": "https://gitlab.com/cki-project/kernel-ark",
    "url": "git@gitlab.com:cki-project/kernel-ark.git",
    "ssh_url": "git@gitlab.com:cki-project/kernel-ark.git",
    "http_url": "https://gitlab.com/cki-project/kernel-ark.git"
  },
  "object_attributes": {
    "attachment": null,
    "author_id": 5991344,
    "change_position": null,
    "commit_id": null,
    "created_at": "2023-10-23 10:42:41 UTC",
    "discussion_id": "48c00da55b27f0f1bed26ad471345149a7bd6f5e",
    "id": 1614803258,
    "line_code": null,
    "note": "request-acks-evaluation",
    "noteable_id": 257899826,
    "noteable_type": "MergeRequest",
    "original_position": null,
    "position": null,
    "project_id": 13604247,
    "resolved_at": null,
    "resolved_by_id": null,
    "resolved_by_push": null,
    "st_diff": null,
    "system": false,
    "type": null,
    "updated_at": "2023-10-23 10:42:41 UTC",
    "updated_by_id": null,
    "description": "@jmflinuxtx for awareness.",
    "url": "https://gitlab.com/cki-project/kernel-ark/-/merge_requests/2757#note_1614803258"
  },
  "repository": {
    "name": "kernel-ark",
    "url": "git@gitlab.com:cki-project/kernel-ark.git",
    "description": "The source tree for the Fedora and Always Ready kernels. This repository contains the configurations, build scripts, and downstream patches for both the Fedora kernel and the Always Ready Kernel (ARK).\r\n\r\nDocs: https://cki-project.gitlab.io/kernel-ark/",
    "homepage": "https://gitlab.com/cki-project/kernel-ark"
  },
  "merge_request": {
    "assignee_id": null,
    "author_id": 8248584,
    "created_at": "2023-10-19 10:48:11 UTC",
    "description": "Upstream Status: RHEL only\n\nRestore the changes to /dev/random which were reverted after 5.18.\n\nThis reverts commit 900f11e054896bae7b0146055698656e3d1e20a6 and\n297bcb88233101e8d5062729ff3a5f989bad1c3b.\n\nThis also brings the code up-to-date with respect to centos-stream\ncommit 9de3a7339793d3c516b9305a8854267156f90c53 so that changes that\nwere made after the kernel-ark revert have been brought in.\n\nSigned-off-by: Herbert Xu <herbert.xu@redhat.com>",
    "draft": false,
    "head_pipeline_id": 1042354534,
    "id": 257899826,
    "iid": 2757,
    "last_edited_at": null,
    "last_edited_by_id": null,
    "merge_commit_sha": null,
    "merge_error": null,
    "merge_params": {
      "force_remove_source_branch": "0"
    },
    "merge_status": "can_be_merged",
    "merge_user_id": null,
    "merge_when_pipeline_succeeds": false,
    "milestone_id": null,
    "source_branch": "rhel-rng",
    "source_project_id": 51342062,
    "state_id": 1,
    "target_branch": "os-build",
    "target_project_id": 13604247,
    "time_estimate": 0,
    "title": "random: Add hook to override device reads and getrandom(2)",
    "updated_at": "2023-10-23 10:42:41 UTC",
    "updated_by_id": 8143989,
    "url": "https://gitlab.com/cki-project/kernel-ark/-/merge_requests/2757",
    "source": {
      "id": 51342062,
      "name": "kernel-ark-20231018",
      "description": "The source tree for the Fedora and Always Ready kernels. This repository contains the configurations, build scripts, and downstream patches for both the Fedora kernel and the Always Ready Kernel (ARK).\n\nDocs: https://cki-project.gitlab.io/kernel-ark/",
      "web_url": "https://gitlab.com/herbert.xu2/kernel-ark-20231018",
      "avatar_url": null,
      "git_ssh_url": "git@gitlab.com:herbert.xu2/kernel-ark-20231018.git",
      "git_http_url": "https://gitlab.com/herbert.xu2/kernel-ark-20231018.git",
      "namespace": "Herbert Xu",
      "visibility_level": 20,
      "path_with_namespace": "herbert.xu2/kernel-ark-20231018",
      "default_branch": "os-build",
      "ci_config_path": "",
      "homepage": "https://gitlab.com/herbert.xu2/kernel-ark-20231018",
      "url": "git@gitlab.com:herbert.xu2/kernel-ark-20231018.git",
      "ssh_url": "git@gitlab.com:herbert.xu2/kernel-ark-20231018.git",
      "http_url": "https://gitlab.com/herbert.xu2/kernel-ark-20231018.git"
    },
    "target": {
      "id": 13604247,
      "name": "kernel-ark",
      "description": "The source tree for the Fedora and Always Ready kernels. This repository contains the configurations, build scripts, and downstream patches for both the Fedora kernel and the Always Ready Kernel (ARK).\r\n\r\nDocs: https://cki-project.gitlab.io/kernel-ark/",
      "web_url": "https://gitlab.com/cki-project/kernel-ark",
      "avatar_url": null,
      "git_ssh_url": "git@gitlab.com:cki-project/kernel-ark.git",
      "git_http_url": "https://gitlab.com/cki-project/kernel-ark.git",
      "namespace": "cki-project",
      "visibility_level": 20,
      "path_with_namespace": "cki-project/kernel-ark",
      "default_branch": "os-build",
      "ci_config_path": "",
      "homepage": "https://gitlab.com/cki-project/kernel-ark",
      "url": "git@gitlab.com:cki-project/kernel-ark.git",
      "ssh_url": "git@gitlab.com:cki-project/kernel-ark.git",
      "http_url": "https://gitlab.com/cki-project/kernel-ark.git"
    },
    "last_commit": {
      "id": "1820b71069f04d9347e71caeb9fe49e095dd28ec",
      "message": "crypto: rng - Override drivers/char/random in FIPS mode\n\nUpstream Status: RHEL only\n\nRestore the changes to use the crypto RNG in drivers/char/random\nwhich were reverted after 5.18.\n\nThis reverts commit 297bcb88233101e8d5062729ff3a5f989bad1c3b.\n\nThis also brings the code up-to-date with respect to centos-stream\ncommit 9de3a7339793d3c516b9305a8854267156f90c53 so that changes that\nwere made after the kernel-ark revert have been brought in.\n\nSigned-off-by: Herbert Xu <herbert.xu@redhat.com>\n",
      "title": "crypto: rng - Override drivers/char/random in FIPS mode",
      "timestamp": "2023-10-19T18:44:53+08:00",
      "url": "https://gitlab.com/cki-project/kernel-ark/-/commit/1820b71069f04d9347e71caeb9fe49e095dd28ec",
      "author": {
        "name": "Herbert Xu",
        "email": "[REDACTED]"
      }
    },
    "work_in_progress": false,
    "total_time_spent": 0,
    "time_change": 0,
    "human_total_time_spent": null,
    "human_time_change": null,
    "human_time_estimate": null,
    "assignee_ids": [],
    "reviewer_ids": [],
    "labels": [
      {
        "id": 17438645,
        "title": "Acks::OK",
        "color": "#428BCA",
        "project_id": 13604247,
        "created_at": "2020-12-14 23:17:54 UTC",
        "updated_at": "2021-09-02 11:50:21 UTC",
        "template": false,
        "description": "This MR has been approved by reviewers.",
        "type": "ProjectLabel",
        "group_id": null,
        "lock_on_merge": false
      },
      {
        "id": 29404811,
        "title": "Acks::crypto::OK",
        "color": "#428BCA",
        "project_id": 13604247,
        "created_at": "2023-03-02 13:58:25 UTC",
        "updated_at": "2023-03-02 13:58:25 UTC",
        "template": false,
        "description": "This MR has been approved by reviewers in the crypto group.",
        "type": "ProjectLabel",
        "group_id": null,
        "lock_on_merge": false
      },
      {
        "id": 23834783,
        "title": "CKI::OK",
        "color": "#428BCA",
        "project_id": 13604247,
        "created_at": "2022-02-16 15:53:53 UTC",
        "updated_at": "2023-05-09 15:59:32 UTC",
        "template": false,
        "description": "All the required CKI pipelines for this MR have passed.",
        "type": "ProjectLabel",
        "group_id": null,
        "lock_on_merge": false
      },
      {
        "id": 30783899,
        "title": "CKI_64k::OK",
        "color": "#428BCA",
        "project_id": 13604247,
        "created_at": "2023-06-28 19:51:42 UTC",
        "updated_at": "2023-06-28 19:51:42 UTC",
        "template": false,
        "description": "This MR's latest CKI_64k pipeline was successful.",
        "type": "ProjectLabel",
        "group_id": null,
        "lock_on_merge": false
      },
      {
        "id": 30783898,
        "title": "CKI_64k_Debug::OK",
        "color": "#428BCA",
        "project_id": 13604247,
        "created_at": "2023-06-28 19:51:42 UTC",
        "updated_at": "2023-06-28 19:51:42 UTC",
        "template": false,
        "description": "This MR's latest CKI_64k_Debug pipeline was successful.",
        "type": "ProjectLabel",
        "group_id": null,
        "lock_on_merge": false
      },
      {
        "id": 30221024,
        "title": "CKI_ARK::OK",
        "color": "#428BCA",
        "project_id": 13604247,
        "created_at": "2023-05-09 15:59:32 UTC",
        "updated_at": "2023-05-09 15:59:32 UTC",
        "template": false,
        "description": "This MR's latest CKI_ARK pipeline was successful.",
        "type": "ProjectLabel",
        "group_id": null,
        "lock_on_merge": false
      },
      {
        "id": 32763801,
        "title": "CKI_ARK_16k::OK",
        "color": "#428BCA",
        "project_id": 13604247,
        "created_at": "2023-09-21 08:38:53 UTC",
        "updated_at": "2023-09-21 08:38:53 UTC",
        "template": false,
        "description": "This MR's latest CKI_ARK_16k pipeline was successful.",
        "type": "ProjectLabel",
        "group_id": null,
        "lock_on_merge": false
      },
      {
        "id": 32763778,
        "title": "CKI_ARK_16k_Debug::OK",
        "color": "#428BCA",
        "project_id": 13604247,
        "created_at": "2023-09-21 08:37:06 UTC",
        "updated_at": "2023-09-21 08:37:06 UTC",
        "template": false,
        "description": "This MR's latest CKI_ARK_16k_Debug pipeline was successful.",
        "type": "ProjectLabel",
        "group_id": null,
        "lock_on_merge": false
      },
      {
        "id": 31438885,
        "title": "CKI_ARK_Clang::OK",
        "color": "#428BCA",
        "project_id": 13604247,
        "created_at": "2023-08-24 13:41:57 UTC",
        "updated_at": "2023-08-24 13:41:57 UTC",
        "template": false,
        "description": "This MR's latest CKI_ARK_Clang pipeline was successful.",
        "type": "ProjectLabel",
        "group_id": null,
        "lock_on_merge": false
      },
      {
        "id": 31487898,
        "title": "CKI_ARK_ClangLTO::OK",
        "color": "#428BCA",
        "project_id": 13604247,
        "created_at": "2023-08-29 07:52:34 UTC",
        "updated_at": "2023-08-29 07:52:34 UTC",
        "template": false,
        "description": "This MR's latest CKI_ARK_ClangLTO pipeline was successful.",
        "type": "ProjectLabel",
        "group_id": null,
        "lock_on_merge": false
      },
      {
        "id": 31487881,
        "title": "CKI_ARK_ClangLTO_Debug::OK",
        "color": "#428BCA",
        "project_id": 13604247,
        "created_at": "2023-08-29 07:52:14 UTC",
        "updated_at": "2023-08-29 07:52:14 UTC",
        "template": false,
        "description": "This MR's latest CKI_ARK_ClangLTO_Debug pipeline was successful.",
        "type": "ProjectLabel",
        "group_id": null,
        "lock_on_merge": false
      },
      {
        "id": 31438982,
        "title": "CKI_ARK_Clang_Debug::OK",
        "color": "#428BCA",
        "project_id": 13604247,
        "created_at": "2023-08-24 13:44:11 UTC",
        "updated_at": "2023-08-24 13:44:11 UTC",
        "template": false,
        "description": "This MR's latest CKI_ARK_Clang_Debug pipeline was successful.",
        "type": "ProjectLabel",
        "group_id": null,
        "lock_on_merge": false
      },
      {
        "id": 30831315,
        "title": "CKI_ARK_Debug::OK",
        "color": "#428BCA",
        "project_id": 13604247,
        "created_at": "2023-07-03 20:47:35 UTC",
        "updated_at": "2023-07-03 20:47:35 UTC",
        "template": false,
        "description": "This MR's latest CKI_ARK_Debug pipeline was successful.",
        "type": "ProjectLabel",
        "group_id": null,
        "lock_on_merge": false
      },
      {
        "id": 30802251,
        "title": "CKI_CentOS::OK",
        "color": "#428BCA",
        "project_id": 13604247,
        "created_at": "2023-06-30 08:31:08 UTC",
        "updated_at": "2023-06-30 08:31:08 UTC",
        "template": false,
        "description": "This MR's latest CKI_CentOS pipeline was successful.",
        "type": "ProjectLabel",
        "group_id": null,
        "lock_on_merge": false
      },
      {
        "id": 30824180,
        "title": "CKI_Debug::OK",
        "color": "#428BCA",
        "project_id": 13604247,
        "created_at": "2023-07-03 09:34:01 UTC",
        "updated_at": "2023-07-03 09:34:01 UTC",
        "template": false,
        "description": "This MR's latest CKI_Debug pipeline was successful.",
        "type": "ProjectLabel",
        "group_id": null,
        "lock_on_merge": false
      },
      {
        "id": 30802170,
        "title": "CKI_RT::OK",
        "color": "#428BCA",
        "project_id": 13604247,
        "created_at": "2023-06-30 08:17:35 UTC",
        "updated_at": "2023-06-30 08:17:35 UTC",
        "template": false,
        "description": "This MR's latest CKI_RT pipeline was successful.",
        "type": "ProjectLabel",
        "group_id": null,
        "lock_on_merge": false
      },
      {
        "id": 30802206,
        "title": "CKI_RT_Debug::OK",
        "color": "#428BCA",
        "project_id": 13604247,
        "created_at": "2023-06-30 08:21:12 UTC",
        "updated_at": "2023-06-30 08:21:12 UTC",
        "template": false,
        "description": "This MR's latest CKI_RT_Debug pipeline was successful.",
        "type": "ProjectLabel",
        "group_id": null,
        "lock_on_merge": false
      },
      {
        "id": 19150198,
        "title": "Dependencies::OK",
        "color": "#428BCA",
        "project_id": 13604247,
        "created_at": "2021-03-17 14:01:23 UTC",
        "updated_at": "2021-09-01 11:28:16 UTC",
        "template": false,
        "description": "This MR does not depend on any other MR.",
        "type": "ProjectLabel",
        "group_id": null,
        "lock_on_merge": false
      },
      {
        "id": 29876642,
        "title": "Merge::OK",
        "color": "#428BCA",
        "project_id": 13604247,
        "created_at": "2023-04-10 01:38:15 UTC",
        "updated_at": "2023-04-10 01:38:15 UTC",
        "template": false,
        "description": "This Merge Request merges cleanly into it's target branch.",
        "type": "ProjectLabel",
        "group_id": null,
        "lock_on_merge": false
      },
      {
        "id": 27531036,
        "title": "readyForMerge",
        "color": "#8BCA42",
        "project_id": 13604247,
        "created_at": "2022-10-24 17:58:11 UTC",
        "updated_at": "2022-10-24 17:58:11 UTC",
        "template": false,
        "description": "This MR is waiting to be merged by a maintainer.",
        "type": "ProjectLabel",
        "group_id": null,
        "lock_on_merge": false
      }
    ],
    "state": "opened",
    "blocking_discussions_resolved": true,
    "first_contribution": false,
    "detailed_merge_status": "mergeable"
  }
}
