{
  "id": 167253169,
  "name": "mm",
  "rule_type": "regular",
  "eligible_approvers": [
    {
      "id": 5991344,
      "username": "ptalbert",
      "name": "Patrick Talbert",
      "state": "active",
      "locked": false,
      "avatar_url": "https://secure.gravatar.com/avatar/f8856a671e75c6e69fcd9afed65944577e5cfc8a278ddbeaf2a2254e5248135b?s=80&d=identicon",
      "web_url": "https://gitlab.com/ptalbert"
    },
    {
      "id": 8413914,
      "username": "lzampier",
      "name": "Lucas Zampieri",
      "state": "active",
      "locked": false,
      "avatar_url": "https://gitlab.com/uploads/-/system/user/avatar/8413914/avatar.png",
      "web_url": "https://gitlab.com/lzampier"
    }
  ],
  "approvals_required": 1,
  "users": [
    {
      "id": 5991344,
      "username": "ptalbert",
      "name": "Patrick Talbert",
      "state": "active",
      "locked": false,
      "avatar_url": "https://secure.gravatar.com/avatar/f8856a671e75c6e69fcd9afed65944577e5cfc8a278ddbeaf2a2254e5248135b?s=80&d=identicon",
      "web_url": "https://gitlab.com/ptalbert"
    },
    {
      "id": 8413914,
      "username": "lzampier",
      "name": "Lucas Zampieri",
      "state": "active",
      "locked": false,
      "avatar_url": "https://gitlab.com/uploads/-/system/user/avatar/8413914/avatar.png",
      "web_url": "https://gitlab.com/lzampier"
    }
  ],
  "groups": [],
  "contains_hidden_groups": false,
  "report_type": null,
  "section": null,
  "source_rule": null,
  "overridden": false
}
