{"data":
  {"project":
    {"mr":
      {
        "approved": false,
        "author": {
          "gid": "gid://gitlab/User/9996616462",
          "name": "Shadow Man",
          "email": "shadowman@redhat.com",
          "username": "shadowman"
        },
        "commitCount": 2,
        "description": "JIRA: https://issues.redhat.com/browse/RHEL-14726\n\n```\nREADME: Fix spelling/capitalization\n\n- Fix spelling/capitalization s/Restructured/ReStructured/\n\nSigned-off-by: Thorsten Blum <thorsten.blum@toblux.com>\nSigned-off-by: Jonathan Corbet <corbet@lwn.net>\nLink: https://lore.kernel.org/r/20240207122127.9182-1-thorsten.   blum@toblux.com\n(cherry picked from commit 693fe5956659373a6919f680fe6d99a7bf13c8b4)\n```\n```\nREADME: Fix spelling\n\n- ReStructured Text should be exactly                  reStructuredText\n- \"reStructuredText\" is ONE word, not two! according to https://docutils.sourceforge.io/rst.html\n\nSigned-off-by: Maki Hatano <Maki.Y.Hatano@gmail.com>\nSigned-off-by: Jonathan Corbet <corbet@lwn.net>\nMessage-ID: <20240313100136.20424-1-Maki.Y.Hatano@gmail.com>\n(cherry picked from commit                                 bf4401f3ec700e1a7376a4cbf05ef40c7ffce064)\n```\n\nSigned-off-by: Jarod Wilson <jarod@redhat.com>",
        "global_id": "gid://gitlab/MergeRequest/302414179",
        "labels": {
          "pageInfo": {
            "hasNextPage": false,
            "endCursor": "MTA"
          },
          "nodes": [
            {
              "title": "Acks::NeedsReview"
            },
            {
              "title": "Bugzilla::OK"
            },
            {
              "title": "CKI::OK"
            },
            {
              "title": "CommitRefs::OK"
            },
            {
              "title": "Dependencies::OK"
            },
            {
              "title": "ExternalCI::OK"
            },
            {
              "title": "Fixes::OK"
            },
            {
              "title": "JIRA::InProgress"
            },
            {
              "title": "Merge::OK"
            },
            {
              "title": "Signoff::OK"
            }
          ]
        },
        "state": "opened",
        "draft": false,
        "files": [
          {
            "path": "kernel/fork.c"
          }
        ],
        "preparedAt": "2024-05-16T20:48:45Z",
        "sourceBranch": "backport-RHEL-14726-rhel-9-sandbox-9.2",
        "targetBranch": "9.2",
        "title": "kernel variant testing POC",
        "headPipeline": {
          "id": "gid://gitlab/Ci::Pipeline/1294145352"
        },
        "project": {
          "id": "gid://gitlab/Project/40959793"
        },
        "approvalState": {
          "rules": [
            {
              "approvalsRequired": 2,
              "id": "gid://gitlab/ApprovalMergeRequestRule/159913258",
              "overridden": true,
              "name": "All Members",
              "type": "ANY_APPROVER",
              "eligibleApprovers": [],
              "approved": false,
              "approvedBy": {
                "nodes": []
              },
              "sourceRule": {
                "approvalsRequired": 3,
                "id": "gid://gitlab/ApprovalProjectRule/5053723",
                "overridden": false,
                "name": "All Members",
                "type": "ANY_APPROVER",
                "eligibleApprovers": []
              }
            },
            {
              "approvalsRequired": 1,
              "id": "gid://gitlab/ApprovalMergeRequestRule/160335335",
              "overridden": false,
              "name": "Bot: readyForMerge",
              "type": "REGULAR",
              "eligibleApprovers": [
                {
                  "gid": "gid://gitlab/User/8143989",
                  "name": "CKI KWF Bot",
                  "email": "",
                  "username": "cki-kwf-bot"
                }
              ],
              "approved": false,
              "approvedBy": {
                "nodes": []
              },
              "sourceRule": {}
             },
             {
              "approvalsRequired": 0,
              "id": "gid://gitlab/ApprovalMergeRequestRule/9160335335",
              "overridden": false,
              "name": "Some Subsystem",
              "type": "REGULAR",
              "eligibleApprovers": [
                {
                  "gid": "gid://gitlab/User/8143989",
                  "name": "Shadowman",
                  "email": "",
                  "username": "shadowman"
                }
              ],
              "approved": false,
              "approvedBy": {
                "nodes": []
              },
              "sourceRule": {}
            }
          ]
        }
      }
    }
  }
}
