{
  "data": {
    "project": {
      "mr": {
        "approved": false,
        "author": {
          "gid": "gid://gitlab/User/8129990",
          "name": "Ewan D. Milne",
          "email": "emilne@redhat.com",
          "username": "e-milne"
        },
        "commitCount": 16,
        "description": "JIRA: https://issues.redhat.com/browse/RHEL-39925\nDepends: https://gitlab.com/redhat/centos-stream/src/kernel/centos-stream-9/-/merge_requests/4365\nUpstream Status: From upstream linux mainline\n\nSome bug fixes from upstream for the MPI3MR driver for 9.5\n\nscsi: mpi3mr: Avoid possible run-time warning with long manufacturer strings\nscsi: mpi3mr: Fix some kernel-doc warnings in scsi_bsg_mpi3mr.h\nscsi: mpi3mr: Avoid memcpy field-spanning write WARNING\nscsi: mpi3mr: Replace deprecated strncpy() with assignments\nscsi: mpi3mr: Reduce stack usage in mpi3mr_refresh_sas_ports()\nscsi: mpi3mr: Use ida to manage mrioc ID\nscsi: mpi3mr: Fix mpi3mr_fw.c kernel-doc warnings\nscsi: mpi3mr: Replace 1-element array with flex-array\n\nSigned-off-by: Ewan D. Milne <emilne@redhat.com>",
        "global_id": "gid://gitlab/MergeRequest/306003847",
        "labels": {
          "pageInfo": {
            "hasNextPage": false,
            "endCursor": "MTM"
          },
          "nodes": [
            {
              "title": "Acks::OK"
            },
            {
              "title": "Bugzilla::OK"
            },
            {
              "title": "CKI::OK"
            },
            {
              "title": "CKI_Automotive::Warning"
            },
            {
              "title": "CodeChanged::v3"
            },
            {
              "title": "CommitRefs::OK"
            },
            {
              "title": "Dependencies::6f752cef9247"
            },
            {
              "title": "ExternalCI::OK"
            },
            {
              "title": "Fixes::OK"
            },
            {
              "title": "JIRA::OK"
            },
            {
              "title": "Merge::OK"
            },
            {
              "title": "Signoff::OK"
            },
            {
              "title": "Subsystem:scsi_core"
            }
          ]
        },
        "state": "opened",
        "draft": false,
        "files": [
          {
            "path": "drivers/scsi/mpi3mr/mpi/mpi30_cnfg.h"
          },
          {
            "path": "drivers/scsi/mpi3mr/mpi/mpi30_image.h"
          },
          {
            "path": "drivers/scsi/mpi3mr/mpi/mpi30_ioc.h"
          },
          {
            "path": "drivers/scsi/mpi3mr/mpi/mpi30_transport.h"
          },
          {
            "path": "drivers/scsi/mpi3mr/mpi3mr.h"
          },
          {
            "path": "drivers/scsi/mpi3mr/mpi3mr_app.c"
          },
          {
            "path": "drivers/scsi/mpi3mr/mpi3mr_fw.c"
          },
          {
            "path": "drivers/scsi/mpi3mr/mpi3mr_os.c"
          },
          {
            "path": "drivers/scsi/mpi3mr/mpi3mr_transport.c"
          },
          {
            "path": "include/linux/string.h"
          },
          {
            "path": "include/uapi/scsi/scsi_bsg_mpi3mr.h"
          }
        ],
        "preparedAt": "2024-06-03T21:11:53Z",
        "sourceBranch": "RHEL-39925",
        "targetBranch": "main",
        "title": "mpi3mr driver bug fixes for 9.5",
        "headPipeline": {
          "id": "gid://gitlab/Ci::Pipeline/1362291867"
        },
        "project": {
          "id": "gid://gitlab/Project/24152864"
        }
      }
    }
  }
}
