{
  "data": {
    "project": {
      "mergeRequests": {
        "nodes": [
          {
            "iid": "4401",
            "description": "JIRA: https://issues.redhat.com/browse/RHEL-39925\nDepends: https://gitlab.com/redhat/centos-stream/src/kernel/centos-stream-9/-/merge_requests/4365\nUpstream Status: From upstream linux mainline\n\nSome bug fixes from upstream for the MPI3MR driver for 9.5\n\nscsi: mpi3mr: Avoid possible run-time warning with long manufacturer strings\nscsi: mpi3mr: Fix some kernel-doc warnings in scsi_bsg_mpi3mr.h\nscsi: mpi3mr: Avoid memcpy field-spanning write WARNING\nscsi: mpi3mr: Replace deprecated strncpy() with assignments\nscsi: mpi3mr: Reduce stack usage in mpi3mr_refresh_sas_ports()\nscsi: mpi3mr: Use ida to manage mrioc ID\nscsi: mpi3mr: Fix mpi3mr_fw.c kernel-doc warnings\nscsi: mpi3mr: Replace 1-element array with flex-array\n\nSigned-off-by: Ewan D. Milne <emilne@redhat.com>"
          }
        ]
      }
    }
  }
}
