{
  "expand": "operations,versionedRepresentations,editmeta,changelog,renderedFields",
  "id": "15581865",
  "self": "https://issues.redhat.com/rest/api/2/issue/15581865",
  "key": "RHEL-14726",
  "fields": {
    "issuetype": {
      "self": "https://issues.redhat.com/rest/api/2/issuetype/1",
      "id": "1",
      "description": "A problem that impairs or prevents the functions of the product.",
      "iconUrl": "https://issues.redhat.com/secure/viewavatar?size=xsmall&avatarId=13263&avatarType=issuetype",
      "name": "Bug",
      "subtask": false,
      "avatarId": 13263
    },
    "customfield_12318141": {
      "self": "https://issues.redhat.com/rest/api/2/customFieldOption/16977",
      "value": "12",
      "id": "16977",
      "disabled": false
    },
    "customfield_12322640": null,
    "components": [
      {
        "self": "https://issues.redhat.com/rest/api/2/component/12369751",
        "id": "12369751",
        "name": "kernel",
        "description": " The Linux kernel (the core of the Linux operating system)\n"
      }
    ],
    "project": {
      "self": "https://issues.redhat.com/rest/api/2/project/12332745",
      "id": "12332745",
      "key": "RHEL",
      "name": "RHEL",
      "projectTypeKey": "software",
      "avatarUrls": {
        "48x48": "https://issues.redhat.com/secure/projectavatar?pid=12332745&avatarId=17271",
        "24x24": "https://issues.redhat.com/secure/projectavatar?size=small&pid=12332745&avatarId=17271",
        "16x16": "https://issues.redhat.com/secure/projectavatar?size=xsmall&pid=12332745&avatarId=17271",
        "32x32": "https://issues.redhat.com/secure/projectavatar?size=medium&pid=12332745&avatarId=17271"
      },
      "projectCategory": {
        "self": "https://issues.redhat.com/rest/api/2/projectCategory/10630",
        "id": "10630",
        "description": "These are projects which will be migrated to Red hat Jira (issues.redhat.com)",
        "name": "Product Development-RHEL"
      }
    },
    "fixVersions": [
      {
        "self": "https://issues.redhat.com/rest/api/2/version/12406018",
        "id": "12406018",
        "description": "PPSync [release:2456]",
        "name": "rhel-9.2.0.z",
        "archived": false,
        "released": true
      }
    ],
    "resolution": null,
    "customfield_12324041": "693fe5956659373a6919f680fe6d99a7bf13c8b4 bf4401f3ec700e1a7376a4cbf05ef40c7ffce064",
    "customfield_12317259": [
      {
        "self": "https://issues.redhat.com/rest/api/2/customFieldOption/18483",
        "value": "sst_kernel_security",
        "id": "18483",
        "disabled": false
      }
    ],
    "summary": "kernel variant testing POC",
    "customfield_12321540": {
      "self": "https://issues.redhat.com/rest/api/2/customFieldOption/34176",
      "value": "Requested",
      "id": "34176",
      "disabled": false
    },
    "customfield_12321040": {
      "self": "https://issues.redhat.com/rest/api/2/customFieldOption/27964",
      "value": "15",
      "id": "27964",
      "disabled": false
    },
    "subtasks": [
      {
        "id": "15581866",
        "key": "RHEL-14727",
        "self": "https://issues.redhat.com/rest/api/2/issue/15581866",
        "fields": {
          "summary": "kernel multivariant POC-RT testing",
          "status": {
            "self": "https://issues.redhat.com/rest/api/2/status/6",
            "description": "The issue is closed. See the resolution for context regarding why (for example Done, Abandoned, Duplicate, etc)",
            "iconUrl": "https://issues.redhat.com/images/icons/statuses/closed.png",
            "name": "Closed",
            "id": "6",
            "statusCategory": {
              "self": "https://issues.redhat.com/rest/api/2/statuscategory/3",
              "id": 3,
              "key": "done",
              "colorName": "success",
              "name": "Done"
            }
          },
          "priority": {
            "self": "https://issues.redhat.com/rest/api/2/priority/10300",
            "iconUrl": "https://issues.redhat.com/images/icons/priorities/trivial.svg",
            "name": "Undefined",
            "id": "10300"
          },
          "issuetype": {
            "self": "https://issues.redhat.com/rest/api/2/issuetype/5",
            "id": "5",
            "description": "The sub-task of the issue",
            "iconUrl": "https://issues.redhat.com/secure/viewavatar?size=xsmall&avatarId=13276&avatarType=issuetype",
            "name": "Sub-task",
            "subtask": true,
            "avatarId": 13276
          }
        }
      }
    ],
    "customfield_12323341": null,
    "customfield_12315141": {
      "self": "https://issues.redhat.com/rest/api/2/user?username=jwilson%40redhat.com",
      "name": "jwilson@redhat.com",
      "key": "jarodwilson",
      "emailAddress": "jarod@redhat.com",
      "avatarUrls": {
        "48x48": "https://issues.redhat.com/secure/useravatar?avatarId=17280",
        "24x24": "https://issues.redhat.com/secure/useravatar?size=small&avatarId=17280",
        "16x16": "https://issues.redhat.com/secure/useravatar?size=xsmall&avatarId=17280",
        "32x32": "https://issues.redhat.com/secure/useravatar?size=medium&avatarId=17280"
      },
      "displayName": "Jarod Wilson",
      "active": true,
      "timeZone": "America/New_York"
    },
    "reporter": {
      "self": "https://issues.redhat.com/rest/api/2/user?username=rhn-support-denli",
      "name": "rhn-support-denli",
      "key": "denli",
      "emailAddress": "denli@redhat.com",
      "avatarUrls": {
        "48x48": "https://issues.redhat.com/secure/useravatar?ownerId=denli&avatarId=53698",
        "24x24": "https://issues.redhat.com/secure/useravatar?size=small&ownerId=denli&avatarId=53698",
        "16x16": "https://issues.redhat.com/secure/useravatar?size=xsmall&ownerId=denli&avatarId=53698",
        "32x32": "https://issues.redhat.com/secure/useravatar?size=medium&ownerId=denli&avatarId=53698"
      },
      "displayName": "Dennis Li",
      "active": true,
      "timeZone": "America/New_York"
    },
    "priority": {
      "self": "https://issues.redhat.com/rest/api/2/priority/10300",
      "iconUrl": "https://issues.redhat.com/images/icons/priorities/trivial.svg",
      "name": "Undefined",
      "id": "10300"
    },
    "customfield_12321740": "The following Merge Request has pipeline job artifacts available:\n\nTitle: kernel variant testing POC\nMR: https://gitlab.com/redhat/rhel/src/kernel/rhel-9-sandbox/-/merge_requests/19\nMR Pipeline: https://gitlab.com/redhat/rhel/src/kernel/rhel-9-sandbox/-/pipelines/1294145352\n\nThe Repo URLs are *not* accessible from a web browser! They only function as a dnf or yum baseurl.\n\nArtifacts expire six weeks after creation. If artifacts are needed after that time please rerun the pipeline by visiting the MR's 'Pipelines' tab and clicking the 'Run pipeline' button.\n\n----------------------------------------\n\nDownstream Pipeline Name: RHEL (rhel9_merge_request)\nDataWarehouse Checkout: https://datawarehouse.staging.cki-project.org/kcidb/checkouts/redhat:1294145400\nRepo URL: https://s3.upshift.redhat.com/DH-PROD-CKI/internal/1294145400/$basearch/5.14.0-284.67.1.19_1294145352.el9_2.$basearch\nDebug Repo URL: https://s3.upshift.redhat.com/DH-PROD-CKI/internal/1294145400/$basearch-debug/5.14.0-284.67.1.19_1294145352.el9_2.$basearch\n\n5.14.0-284.67.1.19_1294145352.el9_2.s390x:\nArtifacts (RPMs): https://s3.upshift.redhat.com/DH-PROD-CKI/index.html?prefix=internal-artifacts/1294145400/publish_s390x/6873404203/artifacts/repo/5.14.0-284.67.1.19_1294145352.el9_2.s390x/\n\n5.14.0-284.67.1.19_1294145352.el9_2.aarch64:\nArtifacts (RPMs): https://s3.upshift.redhat.com/DH-PROD-CKI/index.html?prefix=internal-artifacts/1294145400/publish_aarch64/6873404197/artifacts/repo/5.14.0-284.67.1.19_1294145352.el9_2.aarch64/\n\n5.14.0-284.67.1.19_1294145352.el9_2.ppc64le:\nArtifacts (RPMs): https://s3.upshift.redhat.com/DH-PROD-CKI/index.html?prefix=internal-artifacts/1294145400/publish_ppc64le/6873404185/artifacts/repo/5.14.0-284.67.1.19_1294145352.el9_2.ppc64le/\n\n5.14.0-284.67.1.19_1294145352.el9_2.x86_64-debug:\nArtifacts (RPMs): https://s3.upshift.redhat.com/DH-PROD-CKI/index.html?prefix=internal-artifacts/1294145400/publish_x86_64_debug/6873404182/artifacts/repo/5.14.0-284.67.1.19_1294145352.el9_2.x86_64/\n\n5.14.0-284.67.1.19_1294145352.el9_2.x86_64:\nArtifacts (RPMs): https://s3.upshift.redhat.com/DH-PROD-CKI/index.html?prefix=internal-artifacts/1294145400/publish_x86_64/6873404179/artifacts/repo/5.14.0-284.67.1.19_1294145352.el9_2.x86_64/\n\n----------------------------------------\n\nDownstream Pipeline Name: REALTIME (rhel9_realtime_check_merge_request)\nDataWarehouse Checkout: https://datawarehouse.staging.cki-project.org/kcidb/checkouts/redhat:1294145411\nRepo URL: https://s3.upshift.redhat.com/DH-PROD-CKI/internal/1294145411/$basearch/5.14.0-284.67.1.rt14.352.19_1294145352.el9_2.$basearch\nDebug Repo URL: https://s3.upshift.redhat.com/DH-PROD-CKI/internal/1294145411/$basearch-debug/5.14.0-284.67.1.rt14.352.19_1294145352.el9_2.$basearch\n\n5.14.0-284.67.1.rt14.352.19_1294145352.el9_2.x86_64-debug:\nArtifacts (RPMs): https://s3.upshift.redhat.com/DH-PROD-CKI/index.html?prefix=internal-artifacts/1294145411/publish_x86_64_debug/6873404248/artifacts/repo/5.14.0-284.67.1.rt14.352.19_1294145352.el9_2.x86_64/\n\n5.14.0-284.67.1.rt14.352.19_1294145352.el9_2.x86_64:\nArtifacts (RPMs): https://s3.upshift.redhat.com/DH-PROD-CKI/index.html?prefix=internal-artifacts/1294145411/publish_x86_64/6873404246/artifacts/repo/5.14.0-284.67.1.rt14.352.19_1294145352.el9_2.x86_64/\n\n----------------------------------------\n\nDownstream Pipeline Name: 64K (rhel9_64k_merge_request)\nDataWarehouse Checkout: https://datawarehouse.staging.cki-project.org/kcidb/checkouts/redhat:1294145394\nRepo URL: https://s3.upshift.redhat.com/DH-PROD-CKI/internal/1294145394/$basearch/5.14.0-284.67.1.19_1294145352.el9_2.$basearch\n\n5.14.0-284.67.1.19_1294145352.el9_2.aarch64:\nArtifacts (RPMs): https://s3.upshift.redhat.com/DH-PROD-CKI/index.html?prefix=internal-artifacts/1294145394/publish_aarch64/6873404040/artifacts/repo/5.14.0-284.67.1.19_1294145352.el9_2.aarch64/\n\n----------------------------------------\n\nUpdated 2024-05-16 23:22 UTC by buglinker:\n- KWF FAQ: https://red.ht/kernel_workflow_doc\n- Slack #team-kernel-workflow: https://redhat-internal.slack.com/archives/C04LRUPMJQ5\n- Source: https://gitlab.com/cki-project/kernel-workflow/-/blob/main/webhook/buglinker.py\n- Documentation: https://gitlab.com/cki-project/kernel-workflow/-/blob/main/docs/README.buglinker.md\n- Report an issue: https://gitlab.com/cki-project/kernel-workflow/-/issues/new?issue%5Btitle%5D=buglinker%20webhook%20issue\n",
    "labels": [
      "KWF:RT",
      "KWF:kernel-rt",
      "kwf-backport-success"
    ],
    "customfield_12315948": {
      "self": "https://issues.redhat.com/rest/api/2/user?username=mstowell%40redhat.com",
      "name": "mstowell@redhat.com",
      "key": "mstowell",
      "emailAddress": "mstowell@redhat.com",
      "avatarUrls": {
        "48x48": "https://issues.redhat.com/secure/useravatar?ownerId=mstowell&avatarId=26905",
        "24x24": "https://issues.redhat.com/secure/useravatar?size=small&ownerId=mstowell&avatarId=26905",
        "16x16": "https://issues.redhat.com/secure/useravatar?size=xsmall&ownerId=mstowell&avatarId=26905",
        "32x32": "https://issues.redhat.com/secure/useravatar?size=medium&ownerId=mstowell&avatarId=26905"
      },
      "displayName": "Mike Stowell",
      "active": true,
      "timeZone": "America/New_York"
    },
    "versions": [
      {
        "self": "https://issues.redhat.com/rest/api/2/version/12392170",
        "id": "12392170",
        "description": "PPSync [release:2227]",
        "name": "rhel-8.8.0",
        "archived": false,
        "released": true
      }
    ],
    "issuelinks": [
      {
        "id": "15740844",
        "self": "https://issues.redhat.com/rest/api/2/issueLink/15740844",
        "type": {
          "id": "12310720",
          "name": "Blocks",
          "inward": "is blocked by",
          "outward": "blocks",
          "self": "https://issues.redhat.com/rest/api/2/issueLinkType/12310720"
        },
        "inwardIssue": {
          "id": "16006119",
          "key": "RHEL-36513",
          "self": "https://issues.redhat.com/rest/api/2/issue/16006119",
          "fields": {
            "summary": "kernel variant testing POC [KWF:RT]",
            "status": {
              "self": "https://issues.redhat.com/rest/api/2/status/10018",
              "description": "Work has started",
              "iconUrl": "https://issues.redhat.com/images/icons/status_generic.gif",
              "name": "In Progress",
              "id": "10018",
              "statusCategory": {
                "self": "https://issues.redhat.com/rest/api/2/statuscategory/4",
                "id": 4,
                "key": "indeterminate",
                "colorName": "inprogress",
                "name": "In Progress"
              }
            },
            "priority": {
              "self": "https://issues.redhat.com/rest/api/2/priority/10300",
              "iconUrl": "https://issues.redhat.com/images/icons/priorities/trivial.svg",
              "name": "Undefined",
              "id": "10300"
            },
            "issuetype": {
              "self": "https://issues.redhat.com/rest/api/2/issuetype/3",
              "id": "3",
              "description": "Represents a small unit of work that is not end-user facing.",
              "iconUrl": "https://issues.redhat.com/secure/viewavatar?size=xsmall&avatarId=13278&avatarType=issuetype",
              "name": "Task",
              "subtask": false,
              "avatarId": 13278
            }
          }
        }
      },
      {
        "id": "15900770",
        "self": "https://issues.redhat.com/rest/api/2/issueLink/15900770",
        "type": {
          "id": "12310720",
          "name": "Blocks",
          "inward": "is blocked by",
          "outward": "blocks",
          "self": "https://issues.redhat.com/rest/api/2/issueLinkType/12310720"
        },
        "inwardIssue": {
          "id": "16152348",
          "key": "RHEL-49673",
          "self": "https://issues.redhat.com/rest/api/2/issue/16152348",
          "fields": {
            "summary": "kernel variant testing POC [KWF:kernel-rt]",
            "status": {
              "self": "https://issues.redhat.com/rest/api/2/status/6",
              "description": "The issue is closed. See the resolution for context regarding why (for example Done, Abandoned, Duplicate, etc)",
              "iconUrl": "https://issues.redhat.com/images/icons/statuses/closed.png",
              "name": "Closed",
              "id": "6",
              "statusCategory": {
                "self": "https://issues.redhat.com/rest/api/2/statuscategory/3",
                "id": 3,
                "key": "done",
                "colorName": "success",
                "name": "Done"
              }
            },
            "priority": {
              "self": "https://issues.redhat.com/rest/api/2/priority/10300",
              "iconUrl": "https://issues.redhat.com/images/icons/priorities/trivial.svg",
              "name": "Undefined",
              "id": "10300"
            },
            "issuetype": {
              "self": "https://issues.redhat.com/rest/api/2/issuetype/3",
              "id": "3",
              "description": "Represents a small unit of work that is not end-user facing.",
              "iconUrl": "https://issues.redhat.com/secure/viewavatar?size=xsmall&avatarId=13278&avatarType=issuetype",
              "name": "Task",
              "subtask": false,
              "avatarId": 13278
            }
          }
        }
      }
    ],
    "customfield_12319743": null,
    "assignee": {
      "self": "https://issues.redhat.com/rest/api/2/user?username=rhn-support-denli",
      "name": "rhn-support-denli",
      "key": "denli",
      "emailAddress": "denli@redhat.com",
      "avatarUrls": {
        "48x48": "https://issues.redhat.com/secure/useravatar?ownerId=denli&avatarId=53698",
        "24x24": "https://issues.redhat.com/secure/useravatar?size=small&ownerId=denli&avatarId=53698",
        "16x16": "https://issues.redhat.com/secure/useravatar?size=xsmall&ownerId=denli&avatarId=53698",
        "32x32": "https://issues.redhat.com/secure/useravatar?size=medium&ownerId=denli&avatarId=53698"
      },
      "displayName": "Dennis Li",
      "active": true,
      "timeZone": "America/New_York"
    },
    "updated": "2024-07-18T15:18:45.000+0000",
    "status": {
      "self": "https://issues.redhat.com/rest/api/2/status/10018",
      "description": "Work has started",
      "iconUrl": "https://issues.redhat.com/images/icons/status_generic.gif",
      "name": "In Progress",
      "id": "10018",
      "statusCategory": {
        "self": "https://issues.redhat.com/rest/api/2/statuscategory/4",
        "id": 4,
        "key": "indeterminate",
        "colorName": "inprogress",
        "name": "In Progress"
      }
    }
  }
}
