{
  "expand": "operations,versionedRepresentations,editmeta,changelog,renderedFields",
  "id": "16105828",
  "self": "https://issues.stage.redhat.com/rest/api/2/issue/16105828",
  "key": "RHEL-44863",
  "fields": {
    "issuetype": {
      "self": "https://issues.stage.redhat.com/rest/api/2/issuetype/12207",
      "id": "12207",
      "description": "",
      "iconUrl": "https://issues.stage.redhat.com/secure/viewavatar?size=xsmall&avatarId=55784&avatarType=issuetype",
      "name": "Vulnerability",
      "subtask": false,
      "avatarId": 55784
    },
    "customfield_12322640": null,
    "components": [
      {
        "self": "https://issues.stage.redhat.com/rest/api/2/component/12369740",
        "id": "12369740",
        "name": "bash",
        "description": " The GNU Bourne Again shell"
      }
    ],
    "customfield_12316142": {
      "self": "https://issues.stage.redhat.com/rest/api/2/customFieldOption/15653",
      "value": "Critical",
      "id": "15653",
      "disabled": false
    },
    "project": {
      "self": "https://issues.stage.redhat.com/rest/api/2/project/12332745",
      "id": "12332745",
      "key": "RHEL",
      "name": "RHEL",
      "projectTypeKey": "software",
      "avatarUrls": {
        "48x48": "https://issues.stage.redhat.com/secure/projectavatar?pid=12332745&avatarId=17271",
        "24x24": "https://issues.stage.redhat.com/secure/projectavatar?size=small&pid=12332745&avatarId=17271",
        "16x16": "https://issues.stage.redhat.com/secure/projectavatar?size=xsmall&pid=12332745&avatarId=17271",
        "32x32": "https://issues.stage.redhat.com/secure/projectavatar?size=medium&pid=12332745&avatarId=17271"
      },
      "projectCategory": {
        "self": "https://issues.stage.redhat.com/rest/api/2/projectCategory/10630",
        "id": "10630",
        "description": "These are projects which will be migrated to Red hat Jira (issues.redhat.com)",
        "name": "Product Development-RHEL"
      }
    },
    "fixVersions": [],
    "customfield_12324749": "CVE-2024-00000",
    "resolution": null,
    "customfield_12324041": null,
    "customfield_12317259": null,
    "summary": "Testing issue",
    "customfield_12324750": {
      "self": "https://issues.stage.redhat.com/rest/api/2/customFieldOption/39386",
      "value": "False",
      "id": "39386",
      "disabled": false
    },
    "customfield_12321540": null,
    "customfield_12321040": null,
    "subtasks": [],
    "customfield_12323341": null,
    "customfield_12315141": null,
    "reporter": {
      "self": "https://issues.stage.redhat.com/rest/api/2/user?username=rhn-engineering-thoger",
      "name": "rhn-engineering-thoger",
      "key": "thoger",
      "emailAddress": "thoger+stage@redhat.com",
      "avatarUrls": {
        "48x48": "https://www.gravatar.com/avatar/53a9bde172cca233fa47470f30b82d0f?d=mm&s=48",
        "24x24": "https://www.gravatar.com/avatar/53a9bde172cca233fa47470f30b82d0f?d=mm&s=24",
        "16x16": "https://www.gravatar.com/avatar/53a9bde172cca233fa47470f30b82d0f?d=mm&s=16",
        "32x32": "https://www.gravatar.com/avatar/53a9bde172cca233fa47470f30b82d0f?d=mm&s=32"
      },
      "displayName": "Tomas Hoger",
      "active": true,
      "timeZone": "Europe/Berlin"
    },
    "priority": {
      "self": "https://issues.stage.redhat.com/rest/api/2/priority/4",
      "iconUrl": "https://issues.stage.redhat.com/images/icons/priorities/minor.svg",
      "name": "Minor",
      "id": "4"
    },
    "customfield_12321740": null,
    "labels": [
      "Test"
    ],
    "customfield_12315948": null,
    "versions": [
      {
        "self": "https://issues.stage.redhat.com/rest/api/2/version/12417802",
        "id": "12417802",
        "description": "PPSync [release:2602]",
        "name": "rhel-9.4.z",
        "archived": false,
        "released": true
      }
    ],
    "issuelinks": [
      {
        "id": "15838415",
        "self": "https://issues.stage.redhat.com/rest/api/2/issueLink/15838415",
        "type": {
          "id": "12310120",
          "name": "Cloners",
          "inward": "is cloned by",
          "outward": "clones",
          "self": "https://issues.stage.redhat.com/rest/api/2/issueLinkType/12310120"
        },
        "inwardIssue": {
          "id": "16117534",
          "key": "RHEL-45195",
          "self": "https://issues.stage.redhat.com/rest/api/2/issue/16117534",
          "fields": {
            "summary": "Some clone test to see what inherits.",
            "status": {
              "self": "https://issues.stage.redhat.com/rest/api/2/status/10016",
              "description": "Initial creation status. Implies nothing yet and should be very short lived; also can be a Bugzilla status.",
              "iconUrl": "https://issues.stage.redhat.com/images/icons/statuses/generic.png",
              "name": "New",
              "id": "10016",
              "statusCategory": {
                "self": "https://issues.stage.redhat.com/rest/api/2/statuscategory/2",
                "id": 2,
                "key": "new",
                "colorName": "default",
                "name": "To Do"
              }
            },
            "priority": {
              "self": "https://issues.stage.redhat.com/rest/api/2/priority/4",
              "iconUrl": "https://issues.stage.redhat.com/images/icons/priorities/minor.svg",
              "name": "Minor",
              "id": "4"
            },
            "issuetype": {
              "self": "https://issues.stage.redhat.com/rest/api/2/issuetype/12207",
              "id": "12207",
              "description": "",
              "iconUrl": "https://issues.stage.redhat.com/secure/viewavatar?size=xsmall&avatarId=55784&avatarType=issuetype",
              "name": "Vulnerability",
              "subtask": false,
              "avatarId": 55784
            }
          }
        }
      }
    ],
    "customfield_12319743": null,
    "assignee": null,
    "updated": "2024-08-29T08:19:52.000+0000",
    "status": {
      "self": "https://issues.stage.redhat.com/rest/api/2/status/10016",
      "description": "Initial creation status. Implies nothing yet and should be very short lived; also can be a Bugzilla status.",
      "iconUrl": "https://issues.stage.redhat.com/images/icons/statuses/generic.png",
      "name": "New",
      "id": "10016",
      "statusCategory": {
        "self": "https://issues.stage.redhat.com/rest/api/2/statuscategory/2",
        "id": 2,
        "key": "new",
        "colorName": "default",
        "name": "To Do"
      }
    }
  }
}
