{
  "expand": "operations,versionedRepresentations,editmeta,changelog,renderedFields",
  "id": "16162073",
  "self": "https://issues.redhat.com/rest/api/2/issue/16162073",
  "key": "RHEL-50265",
  "fields": {
    "issuetype": {
      "self": "https://issues.redhat.com/rest/api/2/issuetype/1",
      "id": "1",
      "description": "A problem that impairs or prevents the functions of the product.",
      "iconUrl": "https://issues.redhat.com/secure/viewavatar?size=xsmall&avatarId=13263&avatarType=issuetype",
      "name": "Bug",
      "subtask": false,
      "avatarId": 13263
    },
    "customfield_12318141": {
      "self": "https://issues.redhat.com/rest/api/2/customFieldOption/16989",
      "value": "24",
      "id": "16989",
      "disabled": false
    },
    "customfield_12322640": null,
    "components": [
      {
        "self": "https://issues.redhat.com/rest/api/2/component/12369751",
        "id": "12369751",
        "name": "kernel",
        "description": " The Linux kernel (the core of the Linux operating system)\n"
      }
    ],
    "project": {
      "self": "https://issues.redhat.com/rest/api/2/project/12332745",
      "id": "12332745",
      "key": "RHEL",
      "name": "RHEL",
      "projectTypeKey": "software",
      "avatarUrls": {
        "48x48": "https://issues.redhat.com/secure/projectavatar?pid=12332745&avatarId=17271",
        "24x24": "https://issues.redhat.com/secure/projectavatar?size=small&pid=12332745&avatarId=17271",
        "16x16": "https://issues.redhat.com/secure/projectavatar?size=xsmall&pid=12332745&avatarId=17271",
        "32x32": "https://issues.redhat.com/secure/projectavatar?size=medium&pid=12332745&avatarId=17271"
      },
      "projectCategory": {
        "self": "https://issues.redhat.com/rest/api/2/projectCategory/10630",
        "id": "10630",
        "description": "These are projects which will be migrated to Red hat Jira (issues.redhat.com)",
        "name": "Product Development-RHEL"
      }
    },
    "fixVersions": [
      {
        "self": "https://issues.redhat.com/rest/api/2/version/12414808",
        "id": "12414808",
        "description": "PPSync [release:2566]",
        "name": "rhel-9.5",
        "archived": false,
        "released": false
      }
    ],
    "resolution": null,
    "customfield_12324041": null,
    "customfield_12317259": [
      {
        "self": "https://issues.redhat.com/rest/api/2/customFieldOption/15264",
        "value": "sst_virtualization",
        "id": "15264",
        "disabled": false
      }
    ],
    "summary": "CVE-2024-41090 kernel: mlx5_core short frame denial of service [rhel-9.5]",
    "customfield_12321540": null,
    "customfield_12321040": {
      "self": "https://issues.redhat.com/rest/api/2/customFieldOption/27974",
      "value": "25",
      "id": "27974",
      "disabled": false
    },
    "subtasks": [],
    "customfield_12323341": null,
    "customfield_12315141": {
      "self": "https://issues.redhat.com/rest/api/2/user?username=virt-maint",
      "name": "virt-maint",
      "key": "virt-maint",
      "emailAddress": "virt-maint@redhat.com",
      "avatarUrls": {
        "48x48": "https://www.gravatar.com/avatar/29f6336d7043c9a0e4060c6c4e49745a?d=mm&s=48",
        "24x24": "https://www.gravatar.com/avatar/29f6336d7043c9a0e4060c6c4e49745a?d=mm&s=24",
        "16x16": "https://www.gravatar.com/avatar/29f6336d7043c9a0e4060c6c4e49745a?d=mm&s=16",
        "32x32": "https://www.gravatar.com/avatar/29f6336d7043c9a0e4060c6c4e49745a?d=mm&s=32"
      },
      "displayName": "virt-maint",
      "active": true,
      "timeZone": "GMT"
    },
    "reporter": {
      "self": "https://issues.redhat.com/rest/api/2/user?username=mcascell%40redhat.com",
      "name": "mcascell@redhat.com",
      "key": "mcascell",
      "emailAddress": "mcascell@redhat.com",
      "avatarUrls": {
        "48x48": "https://issues.redhat.com/secure/useravatar?avatarId=17284",
        "24x24": "https://issues.redhat.com/secure/useravatar?size=small&avatarId=17284",
        "16x16": "https://issues.redhat.com/secure/useravatar?size=xsmall&avatarId=17284",
        "32x32": "https://issues.redhat.com/secure/useravatar?size=medium&avatarId=17284"
      },
      "displayName": "Mauro Matteo Cascella",
      "active": true,
      "timeZone": "Europe/Rome"
    },
    "priority": {
      "self": "https://issues.redhat.com/rest/api/2/priority/3",
      "iconUrl": "https://issues.redhat.com/images/icons/priorities/major.svg",
      "name": "Major",
      "id": "3"
    },
    "customfield_12321740": "The following Merge Request has pipeline job artifacts available:\n\nTitle: CVE-2024-41090 & CVE-2024-41091: tap/tun: harden by dropping short frame\nMR: https://gitlab.com/redhat/centos-stream/src/kernel/centos-stream-9/-/merge_requests/4809\nMR Pipeline: https://gitlab.com/redhat/centos-stream/src/kernel/centos-stream-9/-/pipelines/1387502196\n\nThe Repo URLs are *not* accessible from a web browser! They only function as a dnf or yum baseurl.\n\nArtifacts expire six weeks after creation. If artifacts are needed after that time please rerun the pipeline by visiting the MR's 'Pipelines' tab and clicking the 'Run pipeline' button.\n\n----------------------------------------\n\nDownstream Pipeline Name: RHEL_COMPAT (c9s_rhel9_compat_merge_request)\nDataWarehouse Checkout: https://datawarehouse.cki-project.org/kcidb/checkouts/redhat:1387502339\n\n5.14.0-486.4809_1387502196.el9.s390x-debug:\nArtifacts (RPMs): https://artifacts.internal.cki-project.org/arr-cki-prod-internal-artifacts/index.html?prefix=internal-artifacts/1387502339/publish_s390x_debug/7425434967/artifacts/repo/5.14.0-486.4809_1387502196.el9.s390x/\nRepo URL: https://artifacts.internal.cki-project.org/arr-cki-prod-internal-artifacts/internal-artifacts/1387502339/publish_s390x_debug/7425434967/artifacts/repo/5.14.0-486.4809_1387502196.el9.s390x/\n\n5.14.0-486.4809_1387502196.el9.s390x:\nArtifacts (RPMs): https://artifacts.internal.cki-project.org/arr-cki-prod-internal-artifacts/index.html?prefix=internal-artifacts/1387502339/publish_s390x/7425434965/artifacts/repo/5.14.0-486.4809_1387502196.el9.s390x/\nRepo URL: https://artifacts.internal.cki-project.org/arr-cki-prod-internal-artifacts/internal-artifacts/1387502339/publish_s390x/7425434965/artifacts/repo/5.14.0-486.4809_1387502196.el9.s390x/\n\n5.14.0-486.4809_1387502196.el9.aarch64-debug:\nArtifacts (RPMs): https://artifacts.internal.cki-project.org/arr-cki-prod-internal-artifacts/index.html?prefix=internal-artifacts/1387502339/publish_aarch64_debug/7425434963/artifacts/repo/5.14.0-486.4809_1387502196.el9.aarch64/\nRepo URL: https://artifacts.internal.cki-project.org/arr-cki-prod-internal-artifacts/internal-artifacts/1387502339/publish_aarch64_debug/7425434963/artifacts/repo/5.14.0-486.4809_1387502196.el9.aarch64/\n\n5.14.0-486.4809_1387502196.el9.aarch64:\nArtifacts (RPMs): https://artifacts.internal.cki-project.org/arr-cki-prod-internal-artifacts/index.html?prefix=internal-artifacts/1387502339/publish_aarch64/7425434961/artifacts/repo/5.14.0-486.4809_1387502196.el9.aarch64/\nRepo URL: https://artifacts.internal.cki-project.org/arr-cki-prod-internal-artifacts/internal-artifacts/1387502339/publish_aarch64/7425434961/artifacts/repo/5.14.0-486.4809_1387502196.el9.aarch64/\n\n5.14.0-486.4809_1387502196.el9.ppc64le-debug:\nArtifacts (RPMs): https://artifacts.internal.cki-project.org/arr-cki-prod-internal-artifacts/index.html?prefix=internal-artifacts/1387502339/publish_ppc64le_debug/7425434958/artifacts/repo/5.14.0-486.4809_1387502196.el9.ppc64le/\nRepo URL: https://artifacts.internal.cki-project.org/arr-cki-prod-internal-artifacts/internal-artifacts/1387502339/publish_ppc64le_debug/7425434958/artifacts/repo/5.14.0-486.4809_1387502196.el9.ppc64le/\n\n5.14.0-486.4809_1387502196.el9.ppc64le:\nArtifacts (RPMs): https://artifacts.internal.cki-project.org/arr-cki-prod-internal-artifacts/index.html?prefix=internal-artifacts/1387502339/publish_ppc64le/7425434948/artifacts/repo/5.14.0-486.4809_1387502196.el9.ppc64le/\nRepo URL: https://artifacts.internal.cki-project.org/arr-cki-prod-internal-artifacts/internal-artifacts/1387502339/publish_ppc64le/7425434948/artifacts/repo/5.14.0-486.4809_1387502196.el9.ppc64le/\n\n5.14.0-486.4809_1387502196.el9.x86_64-debug:\nArtifacts (RPMs): https://artifacts.internal.cki-project.org/arr-cki-prod-internal-artifacts/index.html?prefix=internal-artifacts/1387502339/publish_x86_64_debug/7425434929/artifacts/repo/5.14.0-486.4809_1387502196.el9.x86_64/\nRepo URL: https://artifacts.internal.cki-project.org/arr-cki-prod-internal-artifacts/internal-artifacts/1387502339/publish_x86_64_debug/7425434929/artifacts/repo/5.14.0-486.4809_1387502196.el9.x86_64/\n\n5.14.0-486.4809_1387502196.el9.x86_64:\nArtifacts (RPMs): https://artifacts.internal.cki-project.org/arr-cki-prod-internal-artifacts/index.html?prefix=internal-artifacts/1387502339/publish_x86_64/7425434917/artifacts/repo/5.14.0-486.4809_1387502196.el9.x86_64/\nRepo URL: https://artifacts.internal.cki-project.org/arr-cki-prod-internal-artifacts/internal-artifacts/1387502339/publish_x86_64/7425434917/artifacts/repo/5.14.0-486.4809_1387502196.el9.x86_64/\n\n----------------------------------------\n\nDownstream Pipeline Name: REALTIME (c9s_rt_merge_request)\nDataWarehouse Checkout: https://datawarehouse.cki-project.org/kcidb/checkouts/redhat:1387502510\n\n5.14.0-486.4809_1387502196.el9.x86_64-debug:\nArtifacts (RPMs): https://s3.amazonaws.com/arr-cki-prod-trusted-artifacts/index.html?prefix=trusted-artifacts/1387502510/publish_x86_64_debug/7425436161/artifacts/repo/5.14.0-486.4809_1387502196.el9.x86_64/\nRepo URL: https://s3.amazonaws.com/arr-cki-prod-trusted-artifacts/trusted-artifacts/1387502510/publish_x86_64_debug/7425436161/artifacts/repo/5.14.0-486.4809_1387502196.el9.x86_64/\n\n5.14.0-486.4809_1387502196.el9.x86_64:\nArtifacts (RPMs): https://s3.amazonaws.com/arr-cki-prod-trusted-artifacts/index.html?prefix=trusted-artifacts/1387502510/publish_x86_64/7425436139/artifacts/repo/5.14.0-486.4809_1387502196.el9.x86_64/\nRepo URL: https://s3.amazonaws.com/arr-cki-prod-trusted-artifacts/trusted-artifacts/1387502510/publish_x86_64/7425436139/artifacts/repo/5.14.0-486.4809_1387502196.el9.x86_64/\n\n----------------------------------------\n\nDownstream Pipeline Name: AUTOMOTIVE (c9s_automotive_check_merge_request)\nDataWarehouse Checkout: https://datawarehouse.cki-project.org/kcidb/checkouts/redhat:1387502404\n\n5.14.0-486.435.4809_1387502196.el9iv.aarch64-debug:\nArtifacts (RPMs): https://s3.amazonaws.com/arr-cki-prod-trusted-artifacts/index.html?prefix=trusted-artifacts/1387502404/publish_aarch64_debug/7425435328/artifacts/repo/5.14.0-486.435.4809_1387502196.el9iv.aarch64/\nRepo URL: https://s3.amazonaws.com/arr-cki-prod-trusted-artifacts/trusted-artifacts/1387502404/publish_aarch64_debug/7425435328/artifacts/repo/5.14.0-486.435.4809_1387502196.el9iv.aarch64/\n\n5.14.0-486.435.4809_1387502196.el9iv.aarch64:\nArtifacts (RPMs): https://s3.amazonaws.com/arr-cki-prod-trusted-artifacts/index.html?prefix=trusted-artifacts/1387502404/publish_aarch64/7425435324/artifacts/repo/5.14.0-486.435.4809_1387502196.el9iv.aarch64/\nRepo URL: https://s3.amazonaws.com/arr-cki-prod-trusted-artifacts/trusted-artifacts/1387502404/publish_aarch64/7425435324/artifacts/repo/5.14.0-486.435.4809_1387502196.el9iv.aarch64/\n\n5.14.0-486.435.4809_1387502196.el9iv.x86_64-debug:\nArtifacts (RPMs): https://s3.amazonaws.com/arr-cki-prod-trusted-artifacts/index.html?prefix=trusted-artifacts/1387502404/publish_x86_64_debug/7425435318/artifacts/repo/5.14.0-486.435.4809_1387502196.el9iv.x86_64/\nRepo URL: https://s3.amazonaws.com/arr-cki-prod-trusted-artifacts/trusted-artifacts/1387502404/publish_x86_64_debug/7425435318/artifacts/repo/5.14.0-486.435.4809_1387502196.el9iv.x86_64/\n\n5.14.0-486.435.4809_1387502196.el9iv.x86_64:\nArtifacts (RPMs): https://s3.amazonaws.com/arr-cki-prod-trusted-artifacts/index.html?prefix=trusted-artifacts/1387502404/publish_x86_64/7425435310/artifacts/repo/5.14.0-486.435.4809_1387502196.el9iv.x86_64/\nRepo URL: https://s3.amazonaws.com/arr-cki-prod-trusted-artifacts/trusted-artifacts/1387502404/publish_x86_64/7425435310/artifacts/repo/5.14.0-486.435.4809_1387502196.el9iv.x86_64/\n\n----------------------------------------\n\nDownstream Pipeline Name: 64K (c9s_64k_merge_request)\nDataWarehouse Checkout: https://datawarehouse.cki-project.org/kcidb/checkouts/redhat:1387502421\n\n5.14.0-486.4809_1387502196.el9.aarch64-debug:\nArtifacts (RPMs): https://s3.amazonaws.com/arr-cki-prod-trusted-artifacts/index.html?prefix=trusted-artifacts/1387502421/publish_aarch64_debug/7425435497/artifacts/repo/5.14.0-486.4809_1387502196.el9.aarch64/\nRepo URL: https://s3.amazonaws.com/arr-cki-prod-trusted-artifacts/trusted-artifacts/1387502421/publish_aarch64_debug/7425435497/artifacts/repo/5.14.0-486.4809_1387502196.el9.aarch64/\n\n5.14.0-486.4809_1387502196.el9.aarch64:\nArtifacts (RPMs): https://s3.amazonaws.com/arr-cki-prod-trusted-artifacts/index.html?prefix=trusted-artifacts/1387502421/publish_aarch64/7425435488/artifacts/repo/5.14.0-486.4809_1387502196.el9.aarch64/\nRepo URL: https://s3.amazonaws.com/arr-cki-prod-trusted-artifacts/trusted-artifacts/1387502421/publish_aarch64/7425435488/artifacts/repo/5.14.0-486.4809_1387502196.el9.aarch64/\n\n----------------------------------------\n\nUpdated 2024-07-25 12:29 UTC by buglinker:\n- KWF FAQ: https://red.ht/kernel_workflow_doc\n- Slack #team-kernel-workflow: https://redhat-internal.slack.com/archives/C04LRUPMJQ5\n- Source: https://gitlab.com/cki-project/kernel-workflow/-/blob/main/webhook/buglinker.py\n- Documentation: https://gitlab.com/cki-project/kernel-workflow/-/blob/main/docs/README.buglinker.md\n- Report an issue: https://gitlab.com/cki-project/kernel-workflow/-/issues/new?issue%5Btitle%5D=buglinker%20webhook%20issue\n",
    "labels": [
      "CVE-2024-41090",
      "Security",
      "SecurityTracking",
      "flaw:bz#2299240",
      "flawuuid:ddaa5dc1-b6c5-4112-ac4c-690ee1c6c3c7",
      "pscomponent:kernel"
    ],
    "customfield_12315948": {
      "self": "https://issues.redhat.com/rest/api/2/user?username=virt-bugs",
      "name": "virt-bugs",
      "key": "JIRAUSER166661",
      "emailAddress": "virt-bugs@redhat.com",
      "avatarUrls": {
        "48x48": "https://www.gravatar.com/avatar/035cc5c52cb3ec139bf13be8b422e080?d=mm&s=48",
        "24x24": "https://www.gravatar.com/avatar/035cc5c52cb3ec139bf13be8b422e080?d=mm&s=24",
        "16x16": "https://www.gravatar.com/avatar/035cc5c52cb3ec139bf13be8b422e080?d=mm&s=16",
        "32x32": "https://www.gravatar.com/avatar/035cc5c52cb3ec139bf13be8b422e080?d=mm&s=32"
      },
      "displayName": "virt-bugs",
      "active": true,
      "timeZone": "GMT"
    },
    "versions": [
      {
        "self": "https://issues.redhat.com/rest/api/2/version/12414808",
        "id": "12414808",
        "description": "PPSync [release:2566]",
        "name": "rhel-9.5",
        "archived": false,
        "released": false
      }
    ],
    "issuelinks": [
      {
        "id": "15914337",
        "self": "https://issues.redhat.com/rest/api/2/issueLink/15914337",
        "type": {
          "id": "12311220",
          "name": "Depend",
          "inward": "is depended on by",
          "outward": "depends on",
          "self": "https://issues.redhat.com/rest/api/2/issueLinkType/12311220"
        },
        "inwardIssue": {
          "id": "16162084",
          "key": "RHEL-50274",
          "self": "https://issues.redhat.com/rest/api/2/issue/16162084",
          "fields": {
            "summary": "CVE-2024-41090 kernel-rt: mlx5_core short frame denial of service [rhel-9.5]",
            "status": {
              "self": "https://issues.redhat.com/rest/api/2/status/10018",
              "description": "Work has started",
              "iconUrl": "https://issues.redhat.com/images/icons/status_generic.gif",
              "name": "In Progress",
              "id": "10018",
              "statusCategory": {
                "self": "https://issues.redhat.com/rest/api/2/statuscategory/4",
                "id": 4,
                "key": "indeterminate",
                "colorName": "inprogress",
                "name": "In Progress"
              }
            },
            "priority": {
              "self": "https://issues.redhat.com/rest/api/2/priority/3",
              "iconUrl": "https://issues.redhat.com/images/icons/priorities/major.svg",
              "name": "Major",
              "id": "3"
            },
            "issuetype": {
              "self": "https://issues.redhat.com/rest/api/2/issuetype/1",
              "id": "1",
              "description": "A problem that impairs or prevents the functions of the product.",
              "iconUrl": "https://issues.redhat.com/secure/viewavatar?size=xsmall&avatarId=13263&avatarType=issuetype",
              "name": "Bug",
              "subtask": false,
              "avatarId": 13263
            }
          }
        }
      }
    ],
    "customfield_12319743": {
      "self": "https://issues.redhat.com/rest/api/2/customFieldOption/34567",
      "value": "Approved Blocker",
      "id": "34567",
      "disabled": false
    },
    "assignee": {
      "self": "https://issues.redhat.com/rest/api/2/user?username=rhn-support-ptalbert",
      "name": "rhn-support-ptalbert",
      "key": "rhn-support-ptalbert",
      "emailAddress": "ptalbert@redhat.com",
      "avatarUrls": {
        "48x48": "https://www.gravatar.com/avatar/e662529ce161e09ea3cd97de5ee5f139?d=mm&s=48",
        "24x24": "https://www.gravatar.com/avatar/e662529ce161e09ea3cd97de5ee5f139?d=mm&s=24",
        "16x16": "https://www.gravatar.com/avatar/e662529ce161e09ea3cd97de5ee5f139?d=mm&s=16",
        "32x32": "https://www.gravatar.com/avatar/e662529ce161e09ea3cd97de5ee5f139?d=mm&s=32"
      },
      "displayName": "Patrick Talbert",
      "active": true,
      "timeZone": "Europe/Madrid"
    },
    "updated": "2024-07-25T12:32:38.000+0000",
    "status": {
      "self": "https://issues.redhat.com/rest/api/2/status/10018",
      "description": "Work has started",
      "iconUrl": "https://issues.redhat.com/images/icons/status_generic.gif",
      "name": "In Progress",
      "id": "10018",
      "statusCategory": {
        "self": "https://issues.redhat.com/rest/api/2/statuscategory/4",
        "id": 4,
        "key": "indeterminate",
        "colorName": "inprogress",
        "name": "In Progress"
      }
    }
  }
}
